{
    "dependencies": {
        "NetworkingKp~com.opkloud.kloudprints:default-networking-kp:1.1.0": {
            
        }
    },
    "singleton": false,
    "deploymentBucket": null,
    "flattenedParams": {
        "KeyName": null,
        "NetworkStackName": "NetworkStack",
        "awsRegion": "us-east-1",
        "NumberOfKibanaNodes": "2",
        "DomainName": null,
        "HostedZoneId": null,
        "ImageId": null,
        "stackName": "KibanaStack",
        "ClusterName": "elasticsearch-cluster",
        "InstanceType": "t2.large"
    },
    "requiredParams": {
        "KeyName": {
            "name": "KeyName",
            "exposed": true,
            "value": null,
            "required": true
        },
        "DomainName": {
            "name": "DomainName",
            "exposed": true,
            "value": null,
            "required": true
        },
        "HostedZoneId": {
            "name": "HostedZoneId",
            "exposed": true,
            "value": null,
            "required": true
        },
        "ImageId": {
            "name": "ImageId",
            "exposed": true,
            "value": null,
            "required": true
        }
    },
    "awsRegion": null,
    "puppetParams": [
        
    ],
    "deleteStacks": false,
    "params": {
        "KeyName": {
            "name": "KeyName",
            "exposed": true,
            "value": null,
            "required": true
        },
        "NetworkStackName": {
            "name": "NetworkStackName",
            "exposed": true,
            "value": "NetworkStack",
            "required": false
        },
        "awsRegion": {
            "name": "awsRegion",
            "exposed": true,
            "value": "us-east-1",
            "required": false
        },
        "NumberOfKibanaNodes": {
            "name": "NumberOfKibanaNodes",
            "exposed": true,
            "value": "2",
            "required": false
        },
        "DomainName": {
            "name": "DomainName",
            "exposed": true,
            "value": null,
            "required": true
        },
        "HostedZoneId": {
            "name": "HostedZoneId",
            "exposed": true,
            "value": null,
            "required": true
        },
        "ImageId": {
            "name": "ImageId",
            "exposed": true,
            "value": null,
            "required": true
        },
        "stackName": {
            "name": "stackName",
            "exposed": true,
            "value": "KibanaStack",
            "required": false
        },
        "ClusterName": {
            "name": "ClusterName",
            "exposed": true,
            "value": "elasticsearch-cluster",
            "required": false
        },
        "InstanceType": {
            "name": "InstanceType",
            "exposed": true,
            "value": "t2.large",
            "required": false
        }
    },
    "exposedParams": {
        "KeyName": {
            "name": "KeyName",
            "exposed": true,
            "value": null,
            "required": true
        },
        "NetworkStackName": {
            "name": "NetworkStackName",
            "exposed": true,
            "value": "NetworkStack",
            "required": false
        },
        "awsRegion": {
            "name": "awsRegion",
            "exposed": true,
            "value": "us-east-1",
            "required": false
        },
        "NumberOfKibanaNodes": {
            "name": "NumberOfKibanaNodes",
            "exposed": true,
            "value": "2",
            "required": false
        },
        "DomainName": {
            "name": "DomainName",
            "exposed": true,
            "value": null,
            "required": true
        },
        "HostedZoneId": {
            "name": "HostedZoneId",
            "exposed": true,
            "value": null,
            "required": true
        },
        "ImageId": {
            "name": "ImageId",
            "exposed": true,
            "value": null,
            "required": true
        },
        "stackName": {
            "name": "stackName",
            "exposed": true,
            "value": "KibanaStack",
            "required": false
        },
        "ClusterName": {
            "name": "ClusterName",
            "exposed": true,
            "value": "elasticsearch-cluster",
            "required": false
        },
        "InstanceType": {
            "name": "InstanceType",
            "exposed": true,
            "value": "t2.large",
            "required": false
        }
    }
}